ANDRIOD 7.1.1:

freq		cpu0		cpu1		cpu2		cpu3		
200000		0		0		0		0		
400000		0		0		0		0		
533333		0		0		0		0		
800000		470080		0		0		0		
998400		256489		0		0		0		
1094400		17145		0		0		0		
1190400		351857		0		0		0		

interactive governor:

above_hispeed_delay=25000 1094400:50000
align_windows=0
boost=0
bootpulse=
bootpulse_duration=80000
go_hispeed_load=90
hispeed_freq=998400
io_is_busy=0
max_freq_hysteresis=0
min_sample_time=50000
target_loads=1 800000:85 998400:90 1094400:80
timer_rate=50000
timer_slack=80000
use_migration_notif=0
use_sched_load=0

intelliacitve governor(for Nexus 7 2012):

above_hispeed_delay=25000 1100000:50000
boost=0
boostpulse=
boostpulse_duration=80000
go_hispeed_load=90
hispeed_freq=1000000
io_is_busy=0
min_sample_time=50000
sampling_down_factor=50000
sync_freq=513000
target_loads=1 860000:85 1000000:90 1100000:80
timer_rate=50000
timer_slack=80000
two_phase_freq=513000,620000,860000,1000000
up_threshold_any_cpu_freq=1000000
up_threshold_any_cpu_load=90

